<?xml version="1.0" encoding="UTF-8"?>
<svg width="80px" height="80px" viewBox="0 0 80 80" version="1.1" xmlns="http://www.w3.org/2000/svg" xmlns:xlink="http://www.w3.org/1999/xlink">
    <!-- Generator: Sketch 51.3 (57544) - http://www.bohemiancoding.com/sketch -->
    <title>facebook_icom</title>
    <desc>Created with Sketch.</desc>
    <defs></defs>
    <g id="facebook_icom" stroke="none" stroke-width="1" fill="none" fill-rule="evenodd">
        <path d="M34.18565,23.6512605 L34.18565,31.2212885 L29,31.2212885 L29,40.4789916 L34.18565,40.4789916 L34.18565,68 L44.8417678,68 L44.8417678,40.482493 L51.9916792,40.482493 C51.9916792,40.482493 52.6628018,36.0427171 52.9869049,31.1897759 L44.8810531,31.1897759 L44.8810531,24.8557423 C44.8810531,23.9103641 46.043241,22.6393557 47.1923339,22.6393557 L53,22.6393557 L53,13 L45.1036693,13 C33.9237485,13 34.18565,22.2682073 34.18565,23.6512605" id="facebook_icon" fill="#979797"></path>
    </g>
</svg>